G04*
G04 #@! TF.GenerationSoftware,Altium Limited,Altium Designer,20.1.7 (139)*
G04*
G04 Layer_Physical_Order=1*
G04 Layer_Color=255*
%FSLAX25Y25*%
%MOIN*%
G70*
G04*
G04 #@! TF.SameCoordinates,A1A7297D-0504-46FB-B757-5BCE1BAD4461*
G04*
G04*
G04 #@! TF.FilePolarity,Positive*
G04*
G01*
G75*
%ADD13R,0.03150X0.03150*%
%ADD14R,0.05709X0.03740*%
%ADD19C,0.01968*%
%ADD20R,0.07874X0.06299*%
%ADD21O,0.07874X0.06299*%
G36*
X74803Y3937D02*
X3937D01*
Y74803D01*
X74803D01*
Y3937D01*
D02*
G37*
%LPC*%
G36*
X19783Y63878D02*
X11713D01*
Y57776D01*
X19783D01*
Y58816D01*
X43731D01*
X55905Y46641D01*
Y41102D01*
X66142D01*
Y49764D01*
X59028D01*
X46207Y62585D01*
X45491Y63063D01*
X44646Y63231D01*
X19783D01*
Y63878D01*
D02*
G37*
G36*
X61811Y39619D02*
X61524D01*
Y35933D01*
X65931D01*
X65854Y36516D01*
X65436Y37526D01*
X64771Y38393D01*
X63904Y39058D01*
X62894Y39476D01*
X61811Y39619D01*
D02*
G37*
G36*
X60524D02*
X60236D01*
X59153Y39476D01*
X58144Y39058D01*
X57277Y38393D01*
X56612Y37526D01*
X56193Y36516D01*
X56117Y35933D01*
X60524D01*
Y39619D01*
D02*
G37*
G36*
X65931Y34933D02*
X61524D01*
Y31248D01*
X61811D01*
X62894Y31390D01*
X63904Y31808D01*
X64771Y32473D01*
X65436Y33340D01*
X65854Y34350D01*
X65931Y34933D01*
D02*
G37*
G36*
X60524D02*
X56117D01*
X56193Y34350D01*
X56612Y33340D01*
X57277Y32473D01*
X58144Y31808D01*
X59153Y31390D01*
X60236Y31248D01*
X60524D01*
Y34933D01*
D02*
G37*
G36*
X19783Y56201D02*
X11713D01*
Y50098D01*
X13540D01*
Y28740D01*
X12992D01*
Y23228D01*
X18504D01*
Y28740D01*
X17956D01*
Y50098D01*
X19783D01*
Y56201D01*
D02*
G37*
G36*
X18323Y22260D02*
X16248D01*
Y20185D01*
X18323D01*
Y22260D01*
D02*
G37*
G36*
X15248D02*
X13173D01*
Y20185D01*
X15248D01*
Y22260D01*
D02*
G37*
G36*
X18323Y19185D02*
X16248D01*
Y17110D01*
X18323D01*
Y19185D01*
D02*
G37*
G36*
X15248D02*
X13173D01*
Y17110D01*
X15248D01*
Y19185D01*
D02*
G37*
%LPD*%
D13*
X15748Y19685D02*
D03*
Y25984D02*
D03*
D14*
Y53150D02*
D03*
Y60827D02*
D03*
D19*
Y19685D02*
X37402D01*
X52378Y34661D02*
X60252D01*
X37402Y19685D02*
X52378Y34661D01*
X60252D02*
X61024Y35433D01*
X15748Y25984D02*
Y53150D01*
X15945Y61024D02*
X44646D01*
X15748Y60827D02*
X15945Y61024D01*
X44646D02*
X60236Y45433D01*
X61024D01*
D20*
D03*
D21*
Y35433D02*
D03*
M02*
